{
  "connection": "default",
  "collectionName": "jabatan",
  "info": {
    "name": "jabatan",
    "description": ""
  },
  "options": {
    "increments": true,
    "timestamps": [
      "created_at",
      "updated_at"
    ],
    "comment": ""
  },
  "attributes": {
    "nama_jabatan": {
      "type": "string"
    },
    "users_id": {
      "collection": "user",
      "via": "jabatan_id",
      "plugin": "users-permissions"
    }
  }
}